<?xml version="1.0" encoding="UTF-8" standalone="no"?>
<!-- Created with Inkscape (http://www.inkscape.org/) -->

<svg
   xmlns:osb="http://www.openswatchbook.org/uri/2009/osb"
   xmlns:dc="http://purl.org/dc/elements/1.1/"
   xmlns:cc="http://creativecommons.org/ns#"
   xmlns:rdf="http://www.w3.org/1999/02/22-rdf-syntax-ns#"
   xmlns:svg="http://www.w3.org/2000/svg"
   xmlns="http://www.w3.org/2000/svg"
   xmlns:sodipodi="http://sodipodi.sourceforge.net/DTD/sodipodi-0.dtd"
   xmlns:inkscape="http://www.inkscape.org/namespaces/inkscape"
   width="103"
   height="103"
   version="1.1"
   viewBox="0 0 27.252082 27.252083"
   id="svg619"
   sodipodi:docname="logo_bg.svg"
   inkscape:version="0.92.4 (5da689c313, 2019-01-14)">
  <metadata
     id="metadata623">
    <rdf:RDF>
      <cc:Work
         rdf:about="">
        <dc:format>image/svg+xml</dc:format>
        <dc:type
           rdf:resource="http://purl.org/dc/dcmitype/StillImage" />
        <dc:title />
      </cc:Work>
    </rdf:RDF>
  </metadata>
  <sodipodi:namedview
     pagecolor="#ffffff"
     bordercolor="#666666"
     borderopacity="1"
     objecttolerance="10"
     gridtolerance="10"
     guidetolerance="10"
     inkscape:pageopacity="0"
     inkscape:pageshadow="2"
     inkscape:window-width="1920"
     inkscape:window-height="976"
     id="namedview621"
     showgrid="false"
     inkscape:zoom="18.880238"
     inkscape:cx="42.075009"
     inkscape:cy="17.110667"
     inkscape:window-x="-8"
     inkscape:window-y="-8"
     inkscape:window-maximized="1"
     inkscape:current-layer="cozyroc"
     inkscape:pagecheckerboard="true"
     units="px" />
  <defs
     id="defs308">
    <linearGradient
       id="linearGradient1172"
       osb:paint="solid">
      <stop
         style="stop-color:#0063b0;stop-opacity:1;"
         offset="0"
         id="stop1170" />
    </linearGradient>
    <clipPath
       id="clip1">
      <path
         d="m 98,43 h 3 v 5 h -3 z"
         id="path2"
         inkscape:connector-curvature="0" />
    </clipPath>
    <clipPath
       id="clip2">
      <path
         d="m 54.844,89.883 c 0,25.852 20.961,46.812 46.812,46.812 25.855,0 46.812,-20.961 46.812,-46.812 0,-25.855 -20.957,-46.812 -46.812,-46.812 -25.852,0 -46.812,20.957 -46.812,46.812"
         id="path5"
         inkscape:connector-curvature="0" />
    </clipPath>
    <clipPath
       id="clip3">
      <path
         d="m 94,49 h 4 v 5 h -4 z"
         id="path8"
         inkscape:connector-curvature="0" />
    </clipPath>
    <clipPath
       id="clip4">
      <path
         d="m 54.844,89.883 c 0,25.852 20.961,46.812 46.812,46.812 25.855,0 46.812,-20.961 46.812,-46.812 0,-25.855 -20.957,-46.812 -46.812,-46.812 -25.852,0 -46.812,20.957 -46.812,46.812"
         id="path11"
         inkscape:connector-curvature="0" />
    </clipPath>
    <clipPath
       id="clip5">
      <path
         d="m 90,56 h 5 v 5 h -5 z"
         id="path14"
         inkscape:connector-curvature="0" />
    </clipPath>
    <clipPath
       id="clip6">
      <path
         d="m 54.844,89.883 c 0,25.852 20.961,46.812 46.812,46.812 25.855,0 46.812,-20.961 46.812,-46.812 0,-25.855 -20.957,-46.812 -46.812,-46.812 -25.852,0 -46.812,20.957 -46.812,46.812"
         id="path17"
         inkscape:connector-curvature="0" />
    </clipPath>
    <clipPath
       id="clip7">
      <path
         d="m 85,62 h 6 v 7 h -6 z"
         id="path20"
         inkscape:connector-curvature="0" />
    </clipPath>
    <clipPath
       id="clip8">
      <path
         d="m 54.844,89.883 c 0,25.852 20.961,46.812 46.812,46.812 25.855,0 46.812,-20.961 46.812,-46.812 0,-25.855 -20.957,-46.812 -46.812,-46.812 -25.852,0 -46.812,20.957 -46.812,46.812"
         id="path23"
         inkscape:connector-curvature="0" />
    </clipPath>
    <clipPath
       id="clip9">
      <path
         d="m 79,70 h 8 v 6 h -8 z"
         id="path26"
         inkscape:connector-curvature="0" />
    </clipPath>
    <clipPath
       id="clip10">
      <path
         d="m 54.844,89.883 c 0,25.852 20.961,46.812 46.812,46.812 25.855,0 46.812,-20.961 46.812,-46.812 0,-25.855 -20.957,-46.812 -46.812,-46.812 -25.852,0 -46.812,20.957 -46.812,46.812"
         id="path29"
         inkscape:connector-curvature="0" />
    </clipPath>
    <clipPath
       id="clip11">
      <path
         d="m 73,78 h 9 v 7 h -9 z"
         id="path32"
         inkscape:connector-curvature="0" />
    </clipPath>
    <clipPath
       id="clip12">
      <path
         d="m 54.844,89.883 c 0,25.852 20.961,46.812 46.812,46.812 25.855,0 46.812,-20.961 46.812,-46.812 0,-25.855 -20.957,-46.812 -46.812,-46.812 -25.852,0 -46.812,20.957 -46.812,46.812"
         id="path35"
         inkscape:connector-curvature="0" />
    </clipPath>
    <clipPath
       id="clip13">
      <path
         d="m 65,87 h 12 v 7 H 65 Z"
         id="path38"
         inkscape:connector-curvature="0" />
    </clipPath>
    <clipPath
       id="clip14">
      <path
         d="m 54.844,89.883 c 0,25.852 20.961,46.812 46.812,46.812 25.855,0 46.812,-20.961 46.812,-46.812 0,-25.855 -20.957,-46.812 -46.812,-46.812 -25.852,0 -46.812,20.957 -46.812,46.812"
         id="path41"
         inkscape:connector-curvature="0" />
    </clipPath>
    <clipPath
       id="clip15">
      <path
         d="m 57,96 h 13 v 8 H 57 Z"
         id="path44"
         inkscape:connector-curvature="0" />
    </clipPath>
    <clipPath
       id="clip16">
      <path
         d="m 54.844,89.883 c 0,25.852 20.961,46.812 46.812,46.812 25.855,0 46.812,-20.961 46.812,-46.812 0,-25.855 -20.957,-46.812 -46.812,-46.812 -25.852,0 -46.812,20.957 -46.812,46.812"
         id="path47"
         inkscape:connector-curvature="0" />
    </clipPath>
    <clipPath
       id="clip17">
      <path
         d="m 54,106 h 9 v 9 h -9 z"
         id="path50"
         inkscape:connector-curvature="0" />
    </clipPath>
    <clipPath
       id="clip18">
      <path
         d="m 54.844,89.883 c 0,25.852 20.961,46.812 46.812,46.812 25.855,0 46.812,-20.961 46.812,-46.812 0,-25.855 -20.957,-46.812 -46.812,-46.812 -25.852,0 -46.812,20.957 -46.812,46.812"
         id="path53"
         inkscape:connector-curvature="0" />
    </clipPath>
    <clipPath
       id="clip19">
      <path
         d="m 99,43 h 2 v 5 h -2 z"
         id="path56"
         inkscape:connector-curvature="0" />
    </clipPath>
    <clipPath
       id="clip20">
      <path
         d="m 54.844,89.883 c 0,25.852 20.961,46.812 46.812,46.812 25.855,0 46.812,-20.961 46.812,-46.812 0,-25.855 -20.957,-46.812 -46.812,-46.812 -25.852,0 -46.812,20.957 -46.812,46.812"
         id="path59"
         inkscape:connector-curvature="0" />
    </clipPath>
    <clipPath
       id="clip21">
      <path
         d="m 97,49 h 3 v 5 h -3 z"
         id="path62"
         inkscape:connector-curvature="0" />
    </clipPath>
    <clipPath
       id="clip22">
      <path
         d="m 54.844,89.883 c 0,25.852 20.961,46.812 46.812,46.812 25.855,0 46.812,-20.961 46.812,-46.812 0,-25.855 -20.957,-46.812 -46.812,-46.812 -25.852,0 -46.812,20.957 -46.812,46.812"
         id="path65"
         inkscape:connector-curvature="0" />
    </clipPath>
    <clipPath
       id="clip23">
      <path
         d="m 95,56 h 3 v 5 h -3 z"
         id="path68"
         inkscape:connector-curvature="0" />
    </clipPath>
    <clipPath
       id="clip24">
      <path
         d="m 54.844,89.883 c 0,25.852 20.961,46.812 46.812,46.812 25.855,0 46.812,-20.961 46.812,-46.812 0,-25.855 -20.957,-46.812 -46.812,-46.812 -25.852,0 -46.812,20.957 -46.812,46.812"
         id="path71"
         inkscape:connector-curvature="0" />
    </clipPath>
    <clipPath
       id="clip25">
      <path
         d="m 92,62 h 5 v 7 h -5 z"
         id="path74"
         inkscape:connector-curvature="0" />
    </clipPath>
    <clipPath
       id="clip26">
      <path
         d="m 54.844,89.883 c 0,25.852 20.961,46.812 46.812,46.812 25.855,0 46.812,-20.961 46.812,-46.812 0,-25.855 -20.957,-46.812 -46.812,-46.812 -25.852,0 -46.812,20.957 -46.812,46.812"
         id="path77"
         inkscape:connector-curvature="0" />
    </clipPath>
    <clipPath
       id="clip27">
      <path
         d="m 89,70 h 6 v 6 h -6 z"
         id="path80"
         inkscape:connector-curvature="0" />
    </clipPath>
    <clipPath
       id="clip28">
      <path
         d="m 54.844,89.883 c 0,25.852 20.961,46.812 46.812,46.812 25.855,0 46.812,-20.961 46.812,-46.812 0,-25.855 -20.957,-46.812 -46.812,-46.812 -25.852,0 -46.812,20.957 -46.812,46.812"
         id="path83"
         inkscape:connector-curvature="0" />
    </clipPath>
    <clipPath
       id="clip29">
      <path
         d="m 85,78 h 8 v 7 h -8 z"
         id="path86"
         inkscape:connector-curvature="0" />
    </clipPath>
    <clipPath
       id="clip30">
      <path
         d="m 54.844,89.883 c 0,25.852 20.961,46.812 46.812,46.812 25.855,0 46.812,-20.961 46.812,-46.812 0,-25.855 -20.957,-46.812 -46.812,-46.812 -25.852,0 -46.812,20.957 -46.812,46.812"
         id="path89"
         inkscape:connector-curvature="0" />
    </clipPath>
    <clipPath
       id="clip31">
      <path
         d="m 81,87 h 10 v 7 H 81 Z"
         id="path92"
         inkscape:connector-curvature="0" />
    </clipPath>
    <clipPath
       id="clip32">
      <path
         d="m 54.844,89.883 c 0,25.852 20.961,46.812 46.812,46.812 25.855,0 46.812,-20.961 46.812,-46.812 0,-25.855 -20.957,-46.812 -46.812,-46.812 -25.852,0 -46.812,20.957 -46.812,46.812"
         id="path95"
         inkscape:connector-curvature="0" />
    </clipPath>
    <clipPath
       id="clip33">
      <path
         d="m 76,96 h 13 v 8 H 76 Z"
         id="path98"
         inkscape:connector-curvature="0" />
    </clipPath>
    <clipPath
       id="clip34">
      <path
         d="m 54.844,89.883 c 0,25.852 20.961,46.812 46.812,46.812 25.855,0 46.812,-20.961 46.812,-46.812 0,-25.855 -20.957,-46.812 -46.812,-46.812 -25.852,0 -46.812,20.957 -46.812,46.812"
         id="path101"
         inkscape:connector-curvature="0" />
    </clipPath>
    <clipPath
       id="clip35">
      <path
         d="m 70,106 h 16 v 9 H 70 Z"
         id="path104"
         inkscape:connector-curvature="0" />
    </clipPath>
    <clipPath
       id="clip36">
      <path
         d="m 54.844,89.883 c 0,25.852 20.961,46.812 46.812,46.812 25.855,0 46.812,-20.961 46.812,-46.812 0,-25.855 -20.957,-46.812 -46.812,-46.812 -25.852,0 -46.812,20.957 -46.812,46.812"
         id="path107"
         inkscape:connector-curvature="0" />
    </clipPath>
    <clipPath
       id="clip37">
      <path
         d="m 63,117 h 19 v 10 H 63 Z"
         id="path110"
         inkscape:connector-curvature="0" />
    </clipPath>
    <clipPath
       id="clip38">
      <path
         d="m 54.844,89.883 c 0,25.852 20.961,46.812 46.812,46.812 25.855,0 46.812,-20.961 46.812,-46.812 0,-25.855 -20.957,-46.812 -46.812,-46.812 -25.852,0 -46.812,20.957 -46.812,46.812"
         id="path113"
         inkscape:connector-curvature="0" />
    </clipPath>
    <clipPath
       id="clip39">
      <path
         d="m 55,130 h 23 v 7 H 55 Z"
         id="path116"
         inkscape:connector-curvature="0" />
    </clipPath>
    <clipPath
       id="clip40">
      <path
         d="m 54.844,89.883 c 0,25.852 20.961,46.812 46.812,46.812 25.855,0 46.812,-20.961 46.812,-46.812 0,-25.855 -20.957,-46.812 -46.812,-46.812 -25.852,0 -46.812,20.957 -46.812,46.812"
         id="path119"
         inkscape:connector-curvature="0" />
    </clipPath>
    <clipPath
       id="clip41">
      <path
         d="m 100,43 h 1 v 5 h -1 z"
         id="path122"
         inkscape:connector-curvature="0" />
    </clipPath>
    <clipPath
       id="clip42">
      <path
         d="m 54.844,89.883 c 0,25.852 20.961,46.812 46.812,46.812 25.855,0 46.812,-20.961 46.812,-46.812 0,-25.855 -20.957,-46.812 -46.812,-46.812 -25.852,0 -46.812,20.957 -46.812,46.812"
         id="path125"
         inkscape:connector-curvature="0" />
    </clipPath>
    <clipPath
       id="clip43">
      <path
         d="m 99,49 h 3 v 5 h -3 z"
         id="path128"
         inkscape:connector-curvature="0" />
    </clipPath>
    <clipPath
       id="clip44">
      <path
         d="m 54.844,89.883 c 0,25.852 20.961,46.812 46.812,46.812 25.855,0 46.812,-20.961 46.812,-46.812 0,-25.855 -20.957,-46.812 -46.812,-46.812 -25.852,0 -46.812,20.957 -46.812,46.812"
         id="path131"
         inkscape:connector-curvature="0" />
    </clipPath>
    <clipPath
       id="clip45">
      <path
         d="m 99,56 h 3 v 5 h -3 z"
         id="path134"
         inkscape:connector-curvature="0" />
    </clipPath>
    <clipPath
       id="clip46">
      <path
         d="m 54.844,89.883 c 0,25.852 20.961,46.812 46.812,46.812 25.855,0 46.812,-20.961 46.812,-46.812 0,-25.855 -20.957,-46.812 -46.812,-46.812 -25.852,0 -46.812,20.957 -46.812,46.812"
         id="path137"
         inkscape:connector-curvature="0" />
    </clipPath>
    <clipPath
       id="clip47">
      <path
         d="m 98,62 h 5 v 7 h -5 z"
         id="path140"
         inkscape:connector-curvature="0" />
    </clipPath>
    <clipPath
       id="clip48">
      <path
         d="m 54.844,89.883 c 0,25.852 20.961,46.812 46.812,46.812 25.855,0 46.812,-20.961 46.812,-46.812 0,-25.855 -20.957,-46.812 -46.812,-46.812 -25.852,0 -46.812,20.957 -46.812,46.812"
         id="path143"
         inkscape:connector-curvature="0" />
    </clipPath>
    <clipPath
       id="clip49">
      <path
         d="m 97,70 h 7 v 6 h -7 z"
         id="path146"
         inkscape:connector-curvature="0" />
    </clipPath>
    <clipPath
       id="clip50">
      <path
         d="m 54.844,89.883 c 0,25.852 20.961,46.812 46.812,46.812 25.855,0 46.812,-20.961 46.812,-46.812 0,-25.855 -20.957,-46.812 -46.812,-46.812 -25.852,0 -46.812,20.957 -46.812,46.812"
         id="path149"
         inkscape:connector-curvature="0" />
    </clipPath>
    <clipPath
       id="clip51">
      <path
         d="m 96,78 h 9 v 7 h -9 z"
         id="path152"
         inkscape:connector-curvature="0" />
    </clipPath>
    <clipPath
       id="clip52">
      <path
         d="m 54.844,89.883 c 0,25.852 20.961,46.812 46.812,46.812 25.855,0 46.812,-20.961 46.812,-46.812 0,-25.855 -20.957,-46.812 -46.812,-46.812 -25.852,0 -46.812,20.957 -46.812,46.812"
         id="path155"
         inkscape:connector-curvature="0" />
    </clipPath>
    <clipPath
       id="clip53">
      <path
         d="m 95,87 h 11 v 7 H 95 Z"
         id="path158"
         inkscape:connector-curvature="0" />
    </clipPath>
    <clipPath
       id="clip54">
      <path
         d="m 54.844,89.883 c 0,25.852 20.961,46.812 46.812,46.812 25.855,0 46.812,-20.961 46.812,-46.812 0,-25.855 -20.957,-46.812 -46.812,-46.812 -25.852,0 -46.812,20.957 -46.812,46.812"
         id="path161"
         inkscape:connector-curvature="0" />
    </clipPath>
    <clipPath
       id="clip55">
      <path
         d="m 94,96 h 13 v 8 H 94 Z"
         id="path164"
         inkscape:connector-curvature="0" />
    </clipPath>
    <clipPath
       id="clip56">
      <path
         d="m 54.844,89.883 c 0,25.852 20.961,46.812 46.812,46.812 25.855,0 46.812,-20.961 46.812,-46.812 0,-25.855 -20.957,-46.812 -46.812,-46.812 -25.852,0 -46.812,20.957 -46.812,46.812"
         id="path167"
         inkscape:connector-curvature="0" />
    </clipPath>
    <clipPath
       id="clip57">
      <path
         d="m 93,106 h 15 v 9 H 93 Z"
         id="path170"
         inkscape:connector-curvature="0" />
    </clipPath>
    <clipPath
       id="clip58">
      <path
         d="m 54.844,89.883 c 0,25.852 20.961,46.812 46.812,46.812 25.855,0 46.812,-20.961 46.812,-46.812 0,-25.855 -20.957,-46.812 -46.812,-46.812 -25.852,0 -46.812,20.957 -46.812,46.812"
         id="path173"
         inkscape:connector-curvature="0" />
    </clipPath>
    <clipPath
       id="clip59">
      <path
         d="m 91,117 h 19 v 10 H 91 Z"
         id="path176"
         inkscape:connector-curvature="0" />
    </clipPath>
    <clipPath
       id="clip60">
      <path
         d="m 54.844,89.883 c 0,25.852 20.961,46.812 46.812,46.812 25.855,0 46.812,-20.961 46.812,-46.812 0,-25.855 -20.957,-46.812 -46.812,-46.812 -25.852,0 -46.812,20.957 -46.812,46.812"
         id="path179"
         inkscape:connector-curvature="0" />
    </clipPath>
    <clipPath
       id="clip61">
      <path
         d="m 89,130 h 23 v 7 H 89 Z"
         id="path182"
         inkscape:connector-curvature="0" />
    </clipPath>
    <clipPath
       id="clip62">
      <path
         d="m 54.844,89.883 c 0,25.852 20.961,46.812 46.812,46.812 25.855,0 46.812,-20.961 46.812,-46.812 0,-25.855 -20.957,-46.812 -46.812,-46.812 -25.852,0 -46.812,20.957 -46.812,46.812"
         id="path185"
         inkscape:connector-curvature="0" />
    </clipPath>
    <clipPath
       id="clip63">
      <path
         d="m 100,43 h 2 v 5 h -2 z"
         id="path188"
         inkscape:connector-curvature="0" />
    </clipPath>
    <clipPath
       id="clip64">
      <path
         d="m 54.844,89.883 c 0,25.852 20.961,46.812 46.812,46.812 25.855,0 46.812,-20.961 46.812,-46.812 0,-25.855 -20.957,-46.812 -46.812,-46.812 -25.852,0 -46.812,20.957 -46.812,46.812"
         id="path191"
         inkscape:connector-curvature="0" />
    </clipPath>
    <clipPath
       id="clip65">
      <path
         d="m 101,49 h 3 v 5 h -3 z"
         id="path194"
         inkscape:connector-curvature="0" />
    </clipPath>
    <clipPath
       id="clip66">
      <path
         d="m 54.844,89.883 c 0,25.852 20.961,46.812 46.812,46.812 25.855,0 46.812,-20.961 46.812,-46.812 0,-25.855 -20.957,-46.812 -46.812,-46.812 -25.852,0 -46.812,20.957 -46.812,46.812"
         id="path197"
         inkscape:connector-curvature="0" />
    </clipPath>
    <clipPath
       id="clip67">
      <path
         d="m 103,56 h 4 v 5 h -4 z"
         id="path200"
         inkscape:connector-curvature="0" />
    </clipPath>
    <clipPath
       id="clip68">
      <path
         d="m 54.844,89.883 c 0,25.852 20.961,46.812 46.812,46.812 25.855,0 46.812,-20.961 46.812,-46.812 0,-25.855 -20.957,-46.812 -46.812,-46.812 -25.852,0 -46.812,20.957 -46.812,46.812"
         id="path203"
         inkscape:connector-curvature="0" />
    </clipPath>
    <clipPath
       id="clip69">
      <path
         d="m 104,62 h 5 v 7 h -5 z"
         id="path206"
         inkscape:connector-curvature="0" />
    </clipPath>
    <clipPath
       id="clip70">
      <path
         d="m 54.844,89.883 c 0,25.852 20.961,46.812 46.812,46.812 25.855,0 46.812,-20.961 46.812,-46.812 0,-25.855 -20.957,-46.812 -46.812,-46.812 -25.852,0 -46.812,20.957 -46.812,46.812"
         id="path209"
         inkscape:connector-curvature="0" />
    </clipPath>
    <clipPath
       id="clip71">
      <path
         d="m 106,70 h 7 v 6 h -7 z"
         id="path212"
         inkscape:connector-curvature="0" />
    </clipPath>
    <clipPath
       id="clip72">
      <path
         d="m 54.844,89.883 c 0,25.852 20.961,46.812 46.812,46.812 25.855,0 46.812,-20.961 46.812,-46.812 0,-25.855 -20.957,-46.812 -46.812,-46.812 -25.852,0 -46.812,20.957 -46.812,46.812"
         id="path215"
         inkscape:connector-curvature="0" />
    </clipPath>
    <clipPath
       id="clip73">
      <path
         d="m 108,78 h 8 v 7 h -8 z"
         id="path218"
         inkscape:connector-curvature="0" />
    </clipPath>
    <clipPath
       id="clip74">
      <path
         d="m 54.844,89.883 c 0,25.852 20.961,46.812 46.812,46.812 25.855,0 46.812,-20.961 46.812,-46.812 0,-25.855 -20.957,-46.812 -46.812,-46.812 -25.852,0 -46.812,20.957 -46.812,46.812"
         id="path221"
         inkscape:connector-curvature="0" />
    </clipPath>
    <clipPath
       id="clip75">
      <path
         d="m 110,87 h 11 v 7 h -11 z"
         id="path224"
         inkscape:connector-curvature="0" />
    </clipPath>
    <clipPath
       id="clip76">
      <path
         d="m 54.844,89.883 c 0,25.852 20.961,46.812 46.812,46.812 25.855,0 46.812,-20.961 46.812,-46.812 0,-25.855 -20.957,-46.812 -46.812,-46.812 -25.852,0 -46.812,20.957 -46.812,46.812"
         id="path227"
         inkscape:connector-curvature="0" />
    </clipPath>
    <clipPath
       id="clip77">
      <path
         d="m 113,96 h 13 v 8 h -13 z"
         id="path230"
         inkscape:connector-curvature="0" />
    </clipPath>
    <clipPath
       id="clip78">
      <path
         d="m 54.844,89.883 c 0,25.852 20.961,46.812 46.812,46.812 25.855,0 46.812,-20.961 46.812,-46.812 0,-25.855 -20.957,-46.812 -46.812,-46.812 -25.852,0 -46.812,20.957 -46.812,46.812"
         id="path233"
         inkscape:connector-curvature="0" />
    </clipPath>
    <clipPath
       id="clip79">
      <path
         d="m 116,106 h 15 v 9 h -15 z"
         id="path236"
         inkscape:connector-curvature="0" />
    </clipPath>
    <clipPath
       id="clip80">
      <path
         d="m 54.844,89.883 c 0,25.852 20.961,46.812 46.812,46.812 25.855,0 46.812,-20.961 46.812,-46.812 0,-25.855 -20.957,-46.812 -46.812,-46.812 -25.852,0 -46.812,20.957 -46.812,46.812"
         id="path239"
         inkscape:connector-curvature="0" />
    </clipPath>
    <clipPath
       id="clip81">
      <path
         d="m 119,117 h 19 v 10 h -19 z"
         id="path242"
         inkscape:connector-curvature="0" />
    </clipPath>
    <clipPath
       id="clip82">
      <path
         d="m 54.844,89.883 c 0,25.852 20.961,46.812 46.812,46.812 25.855,0 46.812,-20.961 46.812,-46.812 0,-25.855 -20.957,-46.812 -46.812,-46.812 -25.852,0 -46.812,20.957 -46.812,46.812"
         id="path245"
         inkscape:connector-curvature="0" />
    </clipPath>
    <clipPath
       id="clip83">
      <path
         d="m 124,130 h 22 v 7 h -22 z"
         id="path248"
         inkscape:connector-curvature="0" />
    </clipPath>
    <clipPath
       id="clip84">
      <path
         d="m 54.844,89.883 c 0,25.852 20.961,46.812 46.812,46.812 25.855,0 46.812,-20.961 46.812,-46.812 0,-25.855 -20.957,-46.812 -46.812,-46.812 -25.852,0 -46.812,20.957 -46.812,46.812"
         id="path251"
         inkscape:connector-curvature="0" />
    </clipPath>
    <clipPath
       id="clip85">
      <path
         d="m 100,43 h 3 v 5 h -3 z"
         id="path254"
         inkscape:connector-curvature="0" />
    </clipPath>
    <clipPath
       id="clip86">
      <path
         d="m 54.844,89.883 c 0,25.852 20.961,46.812 46.812,46.812 25.855,0 46.812,-20.961 46.812,-46.812 0,-25.855 -20.957,-46.812 -46.812,-46.812 -25.852,0 -46.812,20.957 -46.812,46.812"
         id="path257"
         inkscape:connector-curvature="0" />
    </clipPath>
    <clipPath
       id="clip87">
      <path
         d="m 103,49 h 4 v 5 h -4 z"
         id="path260"
         inkscape:connector-curvature="0" />
    </clipPath>
    <clipPath
       id="clip88">
      <path
         d="m 54.844,89.883 c 0,25.852 20.961,46.812 46.812,46.812 25.855,0 46.812,-20.961 46.812,-46.812 0,-25.855 -20.957,-46.812 -46.812,-46.812 -25.852,0 -46.812,20.957 -46.812,46.812"
         id="path263"
         inkscape:connector-curvature="0" />
    </clipPath>
    <clipPath
       id="clip89">
      <path
         d="m 107,56 h 4 v 5 h -4 z"
         id="path266"
         inkscape:connector-curvature="0" />
    </clipPath>
    <clipPath
       id="clip90">
      <path
         d="m 54.844,89.883 c 0,25.852 20.961,46.812 46.812,46.812 25.855,0 46.812,-20.961 46.812,-46.812 0,-25.855 -20.957,-46.812 -46.812,-46.812 -25.852,0 -46.812,20.957 -46.812,46.812"
         id="path269"
         inkscape:connector-curvature="0" />
    </clipPath>
    <clipPath
       id="clip91">
      <path
         d="m 110,62 h 6 v 7 h -6 z"
         id="path272"
         inkscape:connector-curvature="0" />
    </clipPath>
    <clipPath
       id="clip92">
      <path
         d="m 54.844,89.883 c 0,25.852 20.961,46.812 46.812,46.812 25.855,0 46.812,-20.961 46.812,-46.812 0,-25.855 -20.957,-46.812 -46.812,-46.812 -25.852,0 -46.812,20.957 -46.812,46.812"
         id="path275"
         inkscape:connector-curvature="0" />
    </clipPath>
    <clipPath
       id="clip93">
      <path
         d="m 115,70 h 7 v 6 h -7 z"
         id="path278"
         inkscape:connector-curvature="0" />
    </clipPath>
    <clipPath
       id="clip94">
      <path
         d="m 54.844,89.883 c 0,25.852 20.961,46.812 46.812,46.812 25.855,0 46.812,-20.961 46.812,-46.812 0,-25.855 -20.957,-46.812 -46.812,-46.812 -25.852,0 -46.812,20.957 -46.812,46.812"
         id="path281"
         inkscape:connector-curvature="0" />
    </clipPath>
    <clipPath
       id="clip95">
      <path
         d="m 120,78 h 9 v 7 h -9 z"
         id="path284"
         inkscape:connector-curvature="0" />
    </clipPath>
    <clipPath
       id="clip96">
      <path
         d="m 54.844,89.883 c 0,25.852 20.961,46.812 46.812,46.812 25.855,0 46.812,-20.961 46.812,-46.812 0,-25.855 -20.957,-46.812 -46.812,-46.812 -25.852,0 -46.812,20.957 -46.812,46.812"
         id="path287"
         inkscape:connector-curvature="0" />
    </clipPath>
    <clipPath
       id="clip97">
      <path
         d="m 126,87 h 11 v 7 h -11 z"
         id="path290"
         inkscape:connector-curvature="0" />
    </clipPath>
    <clipPath
       id="clip98">
      <path
         d="m 54.844,89.883 c 0,25.852 20.961,46.812 46.812,46.812 25.855,0 46.812,-20.961 46.812,-46.812 0,-25.855 -20.957,-46.812 -46.812,-46.812 -25.852,0 -46.812,20.957 -46.812,46.812"
         id="path293"
         inkscape:connector-curvature="0" />
    </clipPath>
    <clipPath
       id="clip99">
      <path
         d="m 132,96 h 14 v 8 h -14 z"
         id="path296"
         inkscape:connector-curvature="0" />
    </clipPath>
    <clipPath
       id="clip100">
      <path
         d="m 54.844,89.883 c 0,25.852 20.961,46.812 46.812,46.812 25.855,0 46.812,-20.961 46.812,-46.812 0,-25.855 -20.957,-46.812 -46.812,-46.812 -25.852,0 -46.812,20.957 -46.812,46.812"
         id="path299"
         inkscape:connector-curvature="0" />
    </clipPath>
    <clipPath
       id="clip101">
      <path
         d="m 140,106 h 9 v 9 h -9 z"
         id="path302"
         inkscape:connector-curvature="0" />
    </clipPath>
    <clipPath
       id="clip102">
      <path
         d="m 54.844,89.883 c 0,25.852 20.961,46.812 46.812,46.812 25.855,0 46.812,-20.961 46.812,-46.812 0,-25.855 -20.957,-46.812 -46.812,-46.812 -25.852,0 -46.812,20.957 -46.812,46.812"
         id="path305"
         inkscape:connector-curvature="0" />
    </clipPath>
  </defs>
  <g
     id="cozyroc"
     transform="matrix(0.80106,0,0,0.80103,-48.695,-80.441918)">
    <g
       transform="matrix(0.35278,0,0,0.35278,41.967308,85.512723)"
       clip-path="url(#clip41)"
       id="g436"
       style="fill:#e19c03;fill-opacity:1">
      <g
         clip-path="url(#clip42)"
         id="g434"
         style="fill:#e19c03;fill-opacity:1">
        <path
           d="m 100.48,43.422 c -0.004,0.08594 -0.0586,0.96484 -0.14844,2.0664 -0.0859,1.1484 -0.0117,2.1133 0.17578,2.1133 0.1836,0 0.23828,-0.99219 0.14453,-2.1445 -0.0977,-1.1445 -0.17187,-2.0469 -0.17187,-2.0469 v 0.01172"
           id="path432"
           style="fill:#e19c03;fill-opacity:1"
           inkscape:connector-curvature="0" />
      </g>
    </g>
    <path
       d="m 94.344308,117.22172 c 0,9.1198 -7.3932,16.514 -16.514,16.514 -9.1199,0 -16.514,-7.3946 -16.514,-16.514 0,-9.1212 7.429588,-16.09613 16.548988,-16.09613 9.1212,0 16.479012,6.97473 16.479012,16.09613"
       id="path310"
       style="fill:#0064b1;fill-opacity:1;stroke:#fffffc;stroke-width:0.33029771;stroke-miterlimit:4;stroke-dasharray:none;stroke-opacity:1"
       inkscape:connector-curvature="0"
       sodipodi:nodetypes="csssc" />
    <g
       transform="matrix(0.35278,0,0,0.37677271,41.987802,82.13767)"
       clip-path="url(#clip61)"
       id="g496"
       style="fill:#e19c03;fill-opacity:1">
      <g
         clip-path="url(#clip62)"
         id="g494"
         style="fill:#e19c03;fill-opacity:1">
        <path
           d="m 110.7265,134.4738 c -0.3711,-2.4883 -5.0547,-4.5234 -10.461,-4.5234 -5.429702,0 -10.125002,2.0352 -10.527002,4.5469 -0.10938,0.72265 0.17969,1.4062 0.79297,2.0156 h 19.355002 c 0.63672,-0.62109 0.94532,-1.3086 0.83985,-2.0391"
           id="path492"
           style="fill:#e19c03;fill-opacity:1"
           inkscape:connector-curvature="0" />
      </g>
    </g>
    <g
       transform="matrix(0.35278,0,0,0.35278,41.967308,85.512723)"
       clip-path="url(#clip1)"
       id="g316">
      <g
         clip-path="url(#clip2)"
         id="g314">
        <path
           d="m 99.594,45.488 c 0.43359,-1.0117 0.77734,-1.832 0.85547,-2.0234 0.008,-0.01563 0.008,-0.01953 0.0117,-0.02344 -0.0508,0.08203 -0.55078,0.95312 -1.1875,2.0469 -0.68359,1.1484 -1.1016,2.1406 -0.92188,2.1406 0.18359,0 0.75,-0.99219 1.2422,-2.1406"
           id="path312"
           inkscape:connector-curvature="0"
           style="fill:#ffffff" />
      </g>
    </g>
    <g
       transform="matrix(0.35278,0,0,0.35278,41.967308,85.512723)"
       clip-path="url(#clip3)"
       id="g322">
      <g
         clip-path="url(#clip4)"
         id="g320">
        <path
           d="m 94.938,53.977 c 0.47656,0 1.3594,-1.0312 1.9336,-2.2773 0.55859,-1.2266 0.73828,-2.1953 0.46484,-2.1953 -0.27344,0 -1.0508,0.96875 -1.8164,2.1953 -0.78125,1.2461 -1.0547,2.2773 -0.58203,2.2773"
           id="path318"
           inkscape:connector-curvature="0"
           style="fill:#ffffff" />
      </g>
    </g>
    <g
       transform="matrix(0.35278,0,0,0.35278,41.967308,85.512723)"
       clip-path="url(#clip5)"
       id="g328">
      <g
         clip-path="url(#clip6)"
         id="g326">
        <path
           d="m 91.055,60.801 c 0.80469,0 2.0039,-1.125 2.6445,-2.4414 0.65234,-1.3281 0.67969,-2.3438 0.10938,-2.3438 -0.57031,0 -1.7031,1.0312 -2.5898,2.3555 -0.88281,1.3203 -0.96875,2.4297 -0.16406,2.4297"
           id="path324"
           inkscape:connector-curvature="0"
           style="fill:#ffffff" />
      </g>
    </g>
    <g
       transform="matrix(0.35278,0,0,0.35278,41.967308,85.512723)"
       clip-path="url(#clip7)"
       id="g334">
      <g
         clip-path="url(#clip8)"
         id="g332">
        <path
           d="m 86.586,68.117 c 1.1914,0 2.7852,-1.1875 3.5273,-2.6172 0.73438,-1.4141 0.55859,-2.543 -0.35938,-2.543 -0.92188,0 -2.4531,1.1406 -3.4531,2.5547 -1.0156,1.4297 -0.91406,2.6055 0.28516,2.6055"
           id="path330"
           inkscape:connector-curvature="0"
           style="fill:#ffffff" />
      </g>
    </g>
    <g
       transform="matrix(0.35278,0,0,0.35278,41.967308,85.512723)"
       clip-path="url(#clip9)"
       id="g340">
      <g
         clip-path="url(#clip10)"
         id="g338">
        <path
           d="m 81.473,75.984 c 1.625,0 3.6445,-1.2656 4.5,-2.8008 0.84375,-1.5195 0.43359,-2.7109 -0.88281,-2.7109 -1.3164,0 -3.2773,1.1914 -4.4336,2.7109 -1.1719,1.5352 -0.81641,2.8008 0.81641,2.8008"
           id="path336"
           inkscape:connector-curvature="0"
           style="fill:#ffffff" />
      </g>
    </g>
    <g
       transform="matrix(0.35278,0,0,0.35278,41.967308,85.512723)"
       clip-path="url(#clip11)"
       id="g346">
      <g
         clip-path="url(#clip12)"
         id="g344">
        <path
           d="m 75.543,84.48 c 2.1289,0 4.7227,-1.3594 5.707,-3.0156 0.97266,-1.6406 0.26562,-2.9609 -1.5156,-2.9609 -1.7695,0 -4.25,1.332 -5.5859,2.9766 -1.3359,1.6523 -0.73828,3 1.3945,3"
           id="path342"
           inkscape:connector-curvature="0"
           style="fill:#ffffff" />
      </g>
    </g>
    <g
       transform="matrix(0.35278,0,0,0.35278,41.967308,85.512723)"
       clip-path="url(#clip13)"
       id="g352">
      <g
         clip-path="url(#clip14)"
         id="g350">
        <path
           d="m 68.676,93.648 c 2.7188,0 5.9141,-1.4805 7.0547,-3.2539 1.125,-1.7734 0.12109,-3.1875 -2.1758,-3.1875 -2.3086,0 -5.3711,1.4258 -6.9141,3.1992 -1.5469,1.7852 -0.67188,3.2422 2.0352,3.2422"
           id="path348"
           inkscape:connector-curvature="0"
           style="fill:#ffffff" />
      </g>
    </g>
    <g
       transform="matrix(0.35278,0,0,0.35278,41.967308,85.512723)"
       clip-path="url(#clip15)"
       id="g358">
      <g
         clip-path="url(#clip16)"
         id="g356">
        <path
           d="m 60.746,103.6 c 3.3945,0 7.2695,-1.5938 8.6016,-3.5469 1.3047,-1.9023 -0.03516,-3.4414 -2.9453,-3.4414 -2.918,0 -6.6562,1.5391 -8.4531,3.4414 -1.8008,1.9531 -0.59766,3.5469 2.7969,3.5469"
           id="path354"
           inkscape:connector-curvature="0"
           style="fill:#ffffff" />
      </g>
    </g>
    <g
       transform="matrix(0.35278,0,0,0.35278,41.967308,85.512723)"
       clip-path="url(#clip17)"
       id="g364">
      <g
         clip-path="url(#clip18)"
         id="g362">
        <path
           d="m 58.062,106.82 c -3.6211,0 -8.168,1.6914 -10.254,3.7539 -2.1094,2.1172 -0.53125,3.9141 3.6484,3.9141 4.1758,0 8.9023,-1.7969 10.449,-3.9141 1.5312,-2.0625 -0.22266,-3.7539 -3.8438,-3.7539"
           id="path360"
           inkscape:connector-curvature="0"
           style="fill:#ffffff" />
      </g>
    </g>
    <g
       transform="matrix(0.35278,0,0,0.35278,41.967308,85.512723)"
       clip-path="url(#clip19)"
       id="g370">
      <g
         clip-path="url(#clip20)"
         id="g368">
        <path
           d="m 99.797,45.488 c -0.37891,1.1484 -0.54688,2.1133 -0.36719,2.1133 0.18359,0 0.49609,-0.96484 0.6875,-2.1133 0.18359,-1.0781 0.32812,-1.9453 0.34375,-2.0547 0,0.0039 0,0.0078 -0.008,0.03125 -0.0703,0.20703 -0.33204,1.0312 -0.65626,2.0234"
           id="path366"
           inkscape:connector-curvature="0"
           style="fill:#ffffff" />
      </g>
    </g>
    <g
       transform="matrix(0.35278,0,0,0.35278,41.967308,85.512723)"
       clip-path="url(#clip21)"
       id="g376">
      <g
         clip-path="url(#clip22)"
         id="g374">
        <path
           d="m 97.77,53.977 c 0.47266,0 1.0273,-1.0312 1.2539,-2.2773 0.22266,-1.2266 0.19141,-2.1953 -0.08203,-2.1953 -0.27344,0 -0.8125,0.96875 -1.2383,2.1953 -0.44141,1.2461 -0.40625,2.2773 0.06641,2.2773"
           id="path372"
           inkscape:connector-curvature="0"
           style="fill:#ffffff" />
      </g>
    </g>
    <g
       transform="matrix(0.35278,0,0,0.35278,41.967308,85.512723)"
       clip-path="url(#clip23)"
       id="g382">
      <g
         clip-path="url(#clip24)"
         id="g380">
        <path
           d="m 97.191,56.016 c -0.56641,0 -1.4219,1.0156 -1.9102,2.3438 -0.49219,1.3164 -0.25391,2.4414 0.55078,2.4414 0.80859,0 1.6836,-1.125 1.9375,-2.4414 0.25391,-1.3281 -0.0078,-2.3438 -0.57812,-2.3438"
           id="path378"
           inkscape:connector-curvature="0"
           style="fill:#ffffff" />
      </g>
    </g>
    <g
       transform="matrix(0.35278,0,0,0.35278,41.967308,85.512723)"
       clip-path="url(#clip25)"
       id="g388">
      <g
         clip-path="url(#clip26)"
         id="g386">
        <path
           d="m 92.523,65.484 c -0.56641,1.4336 -0.08203,2.6328 1.1094,2.6328 1.1914,0 2.4023,-1.1836 2.6953,-2.6172 0.29688,-1.4141 -0.21875,-2.543 -1.1406,-2.543 -0.92185,0 -2.0977,1.1133 -2.6641,2.5273"
           id="path384"
           inkscape:connector-curvature="0"
           style="fill:#ffffff" />
      </g>
    </g>
    <g
       transform="matrix(0.35278,0,0,0.35278,41.967308,85.512723)"
       clip-path="url(#clip27)"
       id="g394">
      <g
         clip-path="url(#clip28)"
         id="g392">
        <path
           d="m 94.695,73.184 c 0.33594,-1.5195 -0.48438,-2.7109 -1.8047,-2.7109 -1.3125,0 -2.8828,1.1914 -3.5352,2.7109 -0.65234,1.5352 0.10547,2.8047 1.7383,2.8047 1.6328,0 3.2617,-1.2695 3.6016,-2.8047"
           id="path390"
           inkscape:connector-curvature="0"
           style="fill:#ffffff" />
      </g>
    </g>
    <g
       transform="matrix(0.35278,0,0,0.35278,41.967308,85.512723)"
       clip-path="url(#clip29)"
       id="g400">
      <g
         clip-path="url(#clip30)"
         id="g398">
        <path
           d="m 85.711,81.465 c -0.75391,1.6562 0.32422,3.0156 2.457,3.0156 2.125,0 4.2109,-1.3594 4.6094,-3.0156 0.39844,-1.6406 -0.75781,-2.9609 -2.5312,-2.9609 -1.7812,0 -3.7852,1.3203 -4.5352,2.9609"
           id="path396"
           inkscape:connector-curvature="0"
           style="fill:#ffffff" />
      </g>
    </g>
    <g
       transform="matrix(0.35278,0,0,0.35278,41.967308,85.512723)"
       clip-path="url(#clip31)"
       id="g406">
      <g
         clip-path="url(#clip32)"
         id="g404">
        <path
           d="m 87.215,87.207 c -2.3047,0 -4.8555,1.4141 -5.7227,3.1875 -0.87109,1.7734 0.58203,3.2539 3.2969,3.2539 2.707,0 5.3203,-1.4805 5.7852,-3.2539 C 91.01971,88.6211 89.508,87.207 87.215,87.207"
           id="path402"
           inkscape:connector-curvature="0"
           style="fill:#ffffff" />
      </g>
    </g>
    <g
       transform="matrix(0.35278,0,0,0.35278,41.967308,85.512723)"
       clip-path="url(#clip33)"
       id="g412">
      <g
         clip-path="url(#clip34)"
         id="g410">
        <path
           d="m 83.641,96.609 c -2.9102,0 -6.0547,1.5391 -7.0703,3.4414 -1.0156,1.9531 0.88281,3.5469 4.2773,3.5469 3.3906,0 6.6172,-1.5938 7.1523,-3.5469 0.52734,-1.9023 -1.4492,-3.4414 -4.3594,-3.4414"
           id="path408"
           inkscape:connector-curvature="0"
           style="fill:#ffffff" />
      </g>
    </g>
    <g
       transform="matrix(0.35278,0,0,0.35278,41.967308,85.512723)"
       clip-path="url(#clip35)"
       id="g418">
      <g
         clip-path="url(#clip36)"
         id="g416">
        <path
           d="m 79.504,106.82 c -3.6172,0 -7.4961,1.6914 -8.6758,3.7539 -1.1758,2.1172 1.2227,3.9141 5.4023,3.9141 4.1797,0 8.0938,-1.7969 8.7305,-3.9141 0.62109,-2.0625 -1.832,-3.7539 -5.457,-3.7539"
           id="path414"
           inkscape:connector-curvature="0"
           style="fill:#ffffff" />
      </g>
    </g>
    <g
       transform="matrix(0.35278,0,0,0.35278,41.967308,85.512723)"
       clip-path="url(#clip37)"
       id="g424">
      <g
         clip-path="url(#clip38)"
         id="g422">
        <path
           d="m 74.652,117.99 c -4.4453,0 -9.1094,1.8516 -10.477,4.1289 -1.3984,2.332 1.5312,4.1797 6.6406,4.1797 5.1094,0 9.8789,-1.9062 10.625,-4.2109 0.72266,-2.2734 -2.3359,-4.0977 -6.7891,-4.0977"
           id="path420"
           inkscape:connector-curvature="0"
           style="fill:#ffffff" />
      </g>
    </g>
    <g
       transform="matrix(0.35278,0,0,0.35278,41.967308,85.512723)"
       clip-path="url(#clip39)"
       id="g430">
      <g
         clip-path="url(#clip40)"
         id="g428">
        <path
           d="m 77.301,134.68 c 0.84766,-2.5117 -2.8984,-4.5469 -8.3086,-4.5469 -5.4258,0 -11.066,2.0352 -12.695,4.5469 -0.46875,0.72265 -0.51172,1.4102 -0.20703,2.0156 h 19.402 c 0.92578,-0.60547 1.5586,-1.293 1.8086,-2.0156"
           id="path426"
           inkscape:connector-curvature="0"
           style="fill:#ffffff" />
      </g>
    </g>
    <g
       transform="matrix(0.35278,0,0,0.35278,41.967308,85.512723)"
       clip-path="url(#clip43)"
       id="g442"
       style="fill:#e19c03;fill-opacity:1">
      <g
         clip-path="url(#clip44)"
         id="g440"
         style="fill:#e19c03;fill-opacity:1">
        <path
           d="m 100.52,53.977 c 0.47265,0 0.73828,-1.0312 0.63281,-2.2773 -0.10547,-1.2266 -0.39062,-2.1953 -0.66016,-2.1953 -0.27343,0 -0.5664,0.96875 -0.66406,2.1953 -0.09766,1.2461 0.21485,2.2773 0.69141,2.2773"
           id="path438"
           style="fill:#e19c03;fill-opacity:1"
           inkscape:connector-curvature="0" />
      </g>
    </g>
    <g
       transform="matrix(0.35278,0,0,0.35278,41.967308,85.512723)"
       clip-path="url(#clip45)"
       id="g448"
       style="fill:#e19c03;fill-opacity:1">
      <g
         clip-path="url(#clip46)"
         id="g446"
         style="fill:#e19c03;fill-opacity:1">
        <path
           d="m 100.5,60.801 c 0.80469,0 1.3594,-1.1328 1.2344,-2.457 -0.1211,-1.3203 -0.67969,-2.3281 -1.25,-2.3281 -0.57032,0 -1.1172,1.0312 -1.2266,2.3555 -0.11328,1.3203 0.43359,2.4297 1.2422,2.4297"
           id="path444"
           style="fill:#e19c03;fill-opacity:1"
           inkscape:connector-curvature="0" />
      </g>
    </g>
    <g
       transform="matrix(0.35278,0,0,0.35278,41.967308,85.512723)"
       clip-path="url(#clip47)"
       id="g454"
       style="fill:#e19c03;fill-opacity:1">
      <g
         clip-path="url(#clip48)"
         id="g452"
         style="fill:#e19c03;fill-opacity:1">
        <path
           d="m 98.59,65.512 c -0.13672,1.4297 0.72266,2.6094 1.9141,2.6094 1.1914,0 2.0352,-1.1914 1.9023,-2.6211 -0.13672,-1.4141 -0.99219,-2.543 -1.9141,-2.543 -0.92188,0 -1.7656,1.1406 -1.9023,2.5547"
           id="path450"
           style="fill:#e19c03;fill-opacity:1"
           inkscape:connector-curvature="0" />
      </g>
    </g>
    <g
       transform="matrix(0.35278,0,0,0.35278,41.967308,85.512723)"
       clip-path="url(#clip49)"
       id="g460"
       style="fill:#e19c03;fill-opacity:1">
      <g
         clip-path="url(#clip50)"
         id="g458"
         style="fill:#e19c03;fill-opacity:1">
        <path
           d="m 97.832,73.211 c -0.15234,1.5391 1.0391,2.7734 2.6719,2.7734 1.6289,0 2.8125,-1.2344 2.6562,-2.7734 -0.15235,-1.5234 -1.3516,-2.7383 -2.668,-2.7383 -1.3125,0 -2.5039,1.2148 -2.6602,2.7383"
           id="path456"
           style="fill:#e19c03;fill-opacity:1"
           inkscape:connector-curvature="0" />
      </g>
    </g>
    <g
       transform="matrix(0.35278,0,0,0.35278,41.967308,85.512723)"
       clip-path="url(#clip51)"
       id="g466"
       style="fill:#e19c03;fill-opacity:1">
      <g
         clip-path="url(#clip52)"
         id="g464"
         style="fill:#e19c03;fill-opacity:1">
        <path
           d="m 100.49,78.504 c -1.7695,0 -3.3359,1.3203 -3.5156,2.9609 -0.17969,1.6562 1.3828,3.0156 3.5156,3.0156 2.1289,0 3.7148,-1.3594 3.5352,-3.0156 -0.17578,-1.6406 -1.7539,-2.9609 -3.5352,-2.9609"
           id="path462"
           style="fill:#e19c03;fill-opacity:1"
           inkscape:connector-curvature="0" />
      </g>
    </g>
    <g
       transform="matrix(0.35278,0,0,0.35278,41.967308,85.512723)"
       clip-path="url(#clip53)"
       id="g472"
       style="fill:#e19c03;fill-opacity:1">
      <g
         clip-path="url(#clip54)"
         id="g470"
         style="fill:#e19c03;fill-opacity:1">
        <path
           d="m 105.03,90.379 c -0.20703,-1.7695 -2.2226,-3.1719 -4.5234,-3.1719 -2.3047,0 -4.332,1.4258 -4.5352,3.1992 -0.21484,1.7852 1.8164,3.2422 4.5312,3.2422 2.707,0 4.7305,-1.4805 4.5273,-3.2695"
           id="path468"
           style="fill:#e19c03;fill-opacity:1"
           inkscape:connector-curvature="0" />
      </g>
    </g>
    <g
       transform="matrix(0.35278,0,0,0.35278,41.967308,85.512723)"
       clip-path="url(#clip55)"
       id="g478"
       style="fill:#e19c03;fill-opacity:1">
      <g
         clip-path="url(#clip56)"
         id="g476"
         style="fill:#e19c03;fill-opacity:1">
        <path
           d="m 94.801,100.05 c -0.24609,1.9531 2.3164,3.5469 5.7031,3.5469 3.3828,0 5.9297,-1.5938 5.6914,-3.5469 -0.23828,-1.9023 -2.7812,-3.4414 -5.6953,-3.4414 -2.9102,0 -5.457,1.5391 -5.6992,3.4414"
           id="path474"
           style="fill:#e19c03;fill-opacity:1"
           inkscape:connector-curvature="0" />
      </g>
    </g>
    <g
       transform="matrix(0.35278,0,0,0.35278,41.967308,85.512723)"
       clip-path="url(#clip57)"
       id="g484"
       style="fill:#e19c03;fill-opacity:1">
      <g
         clip-path="url(#clip58)"
         id="g482"
         style="fill:#e19c03;fill-opacity:1">
        <path
           d="m 100.5,114.49 c 4.1719,0 7.3281,-1.7969 7.0547,-3.9141 -0.26562,-2.0625 -3.4023,-3.7539 -7.0234,-3.7539 -3.6211,0 -6.8047,1.6914 -7.0977,3.7539 -0.28516,2.1172 2.8867,3.9141 7.0664,3.9141"
           id="path480"
           style="fill:#e19c03;fill-opacity:1"
           inkscape:connector-curvature="0" />
      </g>
    </g>
    <g
       transform="matrix(0.35278,0,0,0.35278,41.967308,85.512723)"
       clip-path="url(#clip59)"
       id="g490"
       style="fill:#e19c03;fill-opacity:1">
      <g
         clip-path="url(#clip60)"
         id="g488"
         style="fill:#e19c03;fill-opacity:1">
        <path
           d="m 100.52,117.99 c -4.4414,0 -8.3086,1.8242 -8.6484,4.0977 -0.33984,2.3047 3.5,4.2109 8.6133,4.2109 5.1094,0 8.9648,-1.8477 8.6484,-4.1797 -0.32813,-2.2774 -4.1524,-4.1289 -8.6133,-4.1289"
           id="path486"
           style="fill:#e19c03;fill-opacity:1"
           inkscape:connector-curvature="0" />
      </g>
    </g>
    <g
       transform="matrix(0.35278,0,0,0.35278,41.967308,85.512723)"
       clip-path="url(#clip63)"
       id="g502">
      <g
         clip-path="url(#clip64)"
         id="g500">
        <path
           d="m 101.55,47.602 c 0.17969,0 -0.004,-0.96484 -0.40235,-2.1133 -0.39062,-1.1523 -0.68359,-2.0781 -0.68359,-2.0781 0,0 0.17188,0.92578 0.37891,2.0781 0.20703,1.1484 0.52343,2.1133 0.70703,2.1133"
           id="path498"
           inkscape:connector-curvature="0"
           style="fill:#ffffff" />
      </g>
    </g>
    <g
       transform="matrix(0.35278,0,0,0.35278,41.967308,85.512723)"
       clip-path="url(#clip65)"
       id="g508">
      <g
         clip-path="url(#clip66)"
         id="g506">
        <path
           d="m 103.3,53.977 c 0.47266,0 0.48438,-1.0312 0.0352,-2.2773 -0.44141,-1.2266 -0.97656,-2.1953 -1.25,-2.1953 -0.26953,0 -0.31641,0.96875 -0.082,2.1953 0.24609,1.2461 0.82422,2.2773 1.2969,2.2773"
           id="path504"
           inkscape:connector-curvature="0"
           style="fill:#ffffff" />
      </g>
    </g>
    <g
       transform="matrix(0.35278,0,0,0.35278,41.967308,85.512723)"
       clip-path="url(#clip67)"
       id="g514">
      <g
         clip-path="url(#clip68)"
         id="g512">
        <path
           d="m 103.89,56.016 c -0.57032,0 -0.82813,1.0156 -0.55469,2.3438 0.27344,1.3164 1.1758,2.4414 1.9805,2.4414 0.80859,0 1.0273,-1.1328 0.51953,-2.457 -0.51172,-1.3203 -1.375,-2.3281 -1.9453,-2.3281"
           id="path510"
           inkscape:connector-curvature="0"
           style="fill:#ffffff" />
      </g>
    </g>
    <g
       transform="matrix(0.35278,0,0,0.35278,41.967308,85.512723)"
       clip-path="url(#clip69)"
       id="g520">
      <g
         clip-path="url(#clip70)"
         id="g518">
        <path
           d="m 108.66,65.5 c -0.58203,-1.4141 -1.7656,-2.543 -2.6836,-2.543 -0.92188,0 -1.4297,1.1289 -1.1211,2.543 0.30469,1.4297 1.5195,2.6172 2.6992,2.6172 1.1914,0 1.6875,-1.1875 1.1055,-2.6172"
           id="path516"
           inkscape:connector-curvature="0"
           style="fill:#ffffff" />
      </g>
    </g>
    <g
       transform="matrix(0.35278,0,0,0.35278,41.967308,85.512723)"
       clip-path="url(#clip71)"
       id="g526">
      <g
         clip-path="url(#clip72)"
         id="g524">
        <path
           d="m 110.19,75.984 c 1.6133,0 2.3828,-1.2656 1.7148,-2.8008 -0.65234,-1.5195 -2.2305,-2.7109 -3.5469,-2.7109 -1.3242,0 -2.1328,1.1914 -1.7852,2.7109 0.35938,1.5352 1.9883,2.8008 3.6172,2.8008"
           id="path522"
           inkscape:connector-curvature="0"
           style="fill:#ffffff" />
      </g>
    </g>
    <g
       transform="matrix(0.35278,0,0,0.35278,41.967308,85.512723)"
       clip-path="url(#clip73)"
       id="g532">
      <g
         clip-path="url(#clip74)"
         id="g530">
        <path
           d="m 115.59,81.465 c -0.75391,-1.6406 -2.7734,-2.9609 -4.5469,-2.9609 -1.7695,0 -2.9062,1.3203 -2.4961,2.9609 0.40625,1.6562 2.457,3.0156 4.5977,3.0156 2.1406,0 3.207,-1.3594 2.4453,-3.0156"
           id="path528"
           inkscape:connector-curvature="0"
           style="fill:#ffffff" />
      </g>
    </g>
    <g
       transform="matrix(0.35278,0,0,0.35278,41.967308,85.512723)"
       clip-path="url(#clip75)"
       id="g538">
      <g
         clip-path="url(#clip76)"
         id="g536">
        <path
           d="m 119.86,90.406 c -0.86719,-1.7734 -3.4141,-3.1992 -5.7266,-3.1992 -2.2812,0 -3.7852,1.4141 -3.3203,3.1875 0.48047,1.7734 3.0586,3.2539 5.7773,3.2539 2.7187,0 4.1719,-1.457 3.2695,-3.2422"
           id="path534"
           inkscape:connector-curvature="0"
           style="fill:#ffffff" />
      </g>
    </g>
    <g
       transform="matrix(0.35278,0,0,0.35278,41.967308,85.512723)"
       clip-path="url(#clip77)"
       id="g544">
      <g
         clip-path="url(#clip78)"
         id="g542">
        <path
           d="m 124.8,100.05 c -1.0078,-1.9023 -4.1172,-3.4414 -7.043,-3.4414 -2.9102,0 -4.8711,1.5391 -4.3516,3.4414 0.55469,1.9531 3.7852,3.5469 7.168,3.5469 3.4023,0 5.2695,-1.5938 4.2266,-3.5469"
           id="path540"
           inkscape:connector-curvature="0"
           style="fill:#ffffff" />
      </g>
    </g>
    <g
       transform="matrix(0.35278,0,0,0.35278,41.967308,85.512723)"
       clip-path="url(#clip79)"
       id="g550">
      <g
         clip-path="url(#clip80)"
         id="g548">
        <path
           d="m 130.58,110.58 c -1.1836,-2.0625 -5.0469,-3.7539 -8.6602,-3.7539 -3.6133,0 -6.0781,1.6914 -5.4492,3.7539 0.625,2.1172 4.5586,3.9141 8.7305,3.9141 4.1914,0 6.5859,-1.7969 5.3789,-3.9141"
           id="path546"
           inkscape:connector-curvature="0"
           style="fill:#ffffff" />
      </g>
    </g>
    <g
       transform="matrix(0.35278,0,0,0.35278,41.967308,85.512723)"
       clip-path="url(#clip81)"
       id="g556">
      <g
         clip-path="url(#clip82)"
         id="g554">
        <path
           d="m 126.78,117.94 c -4.457,0 -7.4961,1.875 -6.7773,4.1484 0.74609,2.3047 5.5273,4.2109 10.629,4.2109 5.1016,0 8.0547,-1.8477 6.6523,-4.1758 -1.3789,-2.2812 -6.0703,-4.1836 -10.504,-4.1836"
           id="path552"
           inkscape:connector-curvature="0"
           style="fill:#ffffff" />
      </g>
    </g>
    <g
       transform="matrix(0.35278,0,0,0.35278,41.967308,85.512723)"
       clip-path="url(#clip83)"
       id="g562">
      <g
         clip-path="url(#clip84)"
         id="g560">
        <path
           d="m 145.14,134.68 c -1.6328,-2.5117 -7.2578,-4.5469 -12.688,-4.5469 -5.4023,0 -9.1602,2.0352 -8.3164,4.5469 0.24218,0.72265 0.8789,1.4102 1.8008,2.0156 h 19.402 c 0.30859,-0.60547 0.26172,-1.293 -0.19922,-2.0156"
           id="path558"
           inkscape:connector-curvature="0"
           style="fill:#ffffff" />
      </g>
    </g>
    <g
       transform="matrix(0.35278,0,0,0.35278,41.967308,85.512723)"
       clip-path="url(#clip85)"
       id="g568">
      <g
         clip-path="url(#clip86)"
         id="g566">
        <path
           d="m 102.7,47.602 c 0.1875,0 -0.26563,-0.96484 -0.97656,-2.1133 -0.70703,-1.1523 -1.2539,-2.0898 -1.2539,-2.0898 0,0 0.42578,0.9375 0.94922,2.0898 0.52344,1.1484 1.0977,2.1133 1.2812,2.1133"
           id="path564"
           inkscape:connector-curvature="0"
           style="fill:#ffffff" />
      </g>
    </g>
    <g
       transform="matrix(0.35278,0,0,0.35278,41.967308,85.512723)"
       clip-path="url(#clip87)"
       id="g574">
      <g
         clip-path="url(#clip88)"
         id="g572">
        <path
           d="m 106.3,53.977 c 0.47265,0 0.17187,-1.0312 -0.64454,-2.2773 -0.79687,-1.2266 -1.6172,-2.168 -1.8906,-2.168 -0.26953,0 -0.0391,0.94141 0.55859,2.168 0.60547,1.2461 1.5078,2.2773 1.9766,2.2773"
           id="path570"
           inkscape:connector-curvature="0"
           style="fill:#ffffff" />
      </g>
    </g>
    <g
       transform="matrix(0.35278,0,0,0.35278,41.967308,85.512723)"
       clip-path="url(#clip89)"
       id="g580">
      <g
         clip-path="url(#clip90)"
         id="g578">
        <path
           d="m 110.36,60.801 c 0.80859,0 0.72266,-1.1094 -0.21094,-2.4297 -0.92578,-1.3242 -2.0976,-2.3555 -2.6602,-2.3555 -0.57813,0 -0.51172,1.0156 0.17187,2.3438 0.6875,1.3164 1.8945,2.4414 2.6992,2.4414"
           id="path576"
           inkscape:connector-curvature="0"
           style="fill:#ffffff" />
      </g>
    </g>
    <g
       transform="matrix(0.35278,0,0,0.35278,41.967308,85.512723)"
       clip-path="url(#clip91)"
       id="g586">
      <g
         clip-path="url(#clip92)"
         id="g584">
        <path
           d="m 115.06,68.117 c 1.1914,0 1.2422,-1.1992 0.20704,-2.6328 -1.0586,-1.4141 -2.5977,-2.5273 -3.5274,-2.5273 -0.92578,0 -1.0508,1.1289 -0.27734,2.543 0.77344,1.4297 2.4062,2.6172 3.5976,2.6172"
           id="path582"
           inkscape:connector-curvature="0"
           style="fill:#ffffff" />
      </g>
    </g>
    <g
       transform="matrix(0.35278,0,0,0.35278,41.967308,85.512723)"
       clip-path="url(#clip93)"
       id="g592">
      <g
         clip-path="url(#clip94)"
         id="g590">
        <path
           d="m 115.83,73.184 c 0.89843,1.5352 2.9531,2.8047 4.582,2.8047 1.6289,0 1.9453,-1.2695 0.73047,-2.8047 -1.1953,-1.5195 -3.2109,-2.7109 -4.5234,-2.7109 -1.3164,0 -1.6875,1.1914 -0.78906,2.7109"
           id="path588"
           inkscape:connector-curvature="0"
           style="fill:#ffffff" />
      </g>
    </g>
    <g
       transform="matrix(0.35278,0,0,0.35278,41.967308,85.512723)"
       clip-path="url(#clip95)"
       id="g598">
      <g
         clip-path="url(#clip96)"
         id="g596">
        <path
           d="m 120.79,81.465 c 1.0195,1.6562 3.6524,3.0156 5.7734,3.0156 2.121,0 2.6953,-1.3594 1.3086,-3.0156 -1.375,-1.6406 -3.9023,-2.9609 -5.6719,-2.9609 -1.7734,0 -2.4531,1.3203 -1.4102,2.9609"
           id="path594"
           inkscape:connector-curvature="0"
           style="fill:#ffffff" />
      </g>
    </g>
    <g
       transform="matrix(0.35278,0,0,0.35278,41.967308,85.512723)"
       clip-path="url(#clip97)"
       id="g604">
      <g
         clip-path="url(#clip98)"
         id="g602">
        <path
           d="m 126.54,90.395 c 1.2031,1.7734 4.4141,3.2539 7.1484,3.2539 2.6992,0 3.5195,-1.4805 1.9375,-3.2539 -1.5898,-1.7734 -4.6953,-3.1875 -7.0078,-3.1875 -2.2969,0 -3.2383,1.4141 -2.0781,3.1875"
           id="path600"
           inkscape:connector-curvature="0"
           style="fill:#ffffff" />
      </g>
    </g>
    <g
       transform="matrix(0.35278,0,0,0.35278,41.967308,85.512723)"
       clip-path="url(#clip99)"
       id="g610">
      <g
         clip-path="url(#clip100)"
         id="g608">
        <path
           d="m 133.22,100.05 c 1.3945,1.9531 5.3086,3.5469 8.6953,3.5469 3.3789,0 4.5508,-1.5938 2.6992,-3.5469 -1.8516,-1.9023 -5.6602,-3.4414 -8.5664,-3.4414 -2.9141,0 -4.1875,1.5391 -2.8281,3.4414"
           id="path606"
           inkscape:connector-curvature="0"
           style="fill:#ffffff" />
      </g>
    </g>
    <g
       transform="matrix(0.35278,0,0,0.35278,41.967308,85.512723)"
       clip-path="url(#clip101)"
       id="g616">
      <g
         clip-path="url(#clip102)"
         id="g614">
        <path
           d="m 155.04,110.58 c -2.1367,-2.0625 -6.7539,-3.7539 -10.379,-3.7539 -3.6328,0 -5.3086,1.6914 -3.7148,3.7539 1.6055,2.1172 6.3633,3.9141 10.539,3.9141 4.1719,0 5.7227,-1.7969 3.5547,-3.9141"
           id="path612"
           inkscape:connector-curvature="0"
           style="fill:#ffffff" />
      </g>
    </g>
  </g>
</svg>
